…
ds
```

```
## # A tibble: 200 x 8
##    subject_id wave_id int_factor_1 slope_factor_1  year cog_1 cog_2 cog_3
##    <fct>        <int>        <dbl>          <dbl> <int> <dbl> <dbl> <dbl>
##  1 1                1         10.4         0.0223  2000  4.21  4.93  6.23
##  2 1                2         10.4         0.0223  2001  4.11  5.47  6.29
##  3 1                3         10.4         0.0223  2002  4.29  5.15  6.28
##  4 1                4         10.4         0.0223  2003  4.30  4.79  6.26
##  5 1                5         10.4         0.0223  2004  4.40  5.48  6.23
##  6 1                6         10.4         0.0223  2005  4.10  5.37  6.27
##  7 1                7         10.4         0.0223  2006  4.24  5.32  6.35
##  8 1                8         10.4         0.0223  2007  4.26  5.31  6.59
##  9 1                9         10.4         0.0223  2008  4.59  5.43  6.52
## 10 1               10         10.4         0.0223  2009  4.43  5.40  6.36
## # ... with 190 more rows
```
…
```
## # A tibble: 200 x 8
##    subject_id wave_id  year int_factor_1 slope_factor_1 cog_1 cog_2 cog_3
##    <fct>        <int> <int>        <dbl>          <dbl> <dbl> <dbl> <dbl>
##  1 1                1  2000         10.4         0.0223  4.21  4.93  6.23
##  2 1                2  2001         10.4         0.0223  4.11  5.47  6.29
##  3 1                3  2002         10.4         0.0223  4.29  5.15  6.28
##  4 1                4  2003         10.4         0.0223  4.30  4.79  6.26
##  5 1                5  2004         10.4         0.0223  4.40  5.48  6.23
##  6 1                6  2005         10.4         0.0223  4.10  5.37  6.27
##  7 1                7  2006         10.4         0.0223  4.24  5.32  6.35
##  8 1                8  2007         10.4         0.0223  4.26  5.31  6.59
##  9 1                9  2008         10.4         0.0223  4.59  5.43  6.52
## 10 1               10  2009         10.4         0.0223  4.43  5.40  6.36
## # ... with 190 more rows
```
…
