…
    cog_1   = round(cog_1   , 1),
    cog_2   = round(cog_2   , 1),
    cog_3   = round(cog_3   , 1),
    phys_1  = round(phys_1  , 1),
    phys_2  = round(phys_2  , 1),
    phys_3  = round(phys_3  , 1)
  ) %>%
  dplyr::select(-year_start)

ds

## # A tibble: 200 x 17
##    subject_id wave_id age_start county_index county_id int_factor_1
##    <fct>        <int>     <int>        <int>     <int>        <dbl>
##  1 1001             1        73            1        51         10.6
##  2 1001             2        73            1        51         10.6
##  3 1001             3        73            1        51         10.6
##  4 1001             4        73            1        51         10.6
##  5 1001             5        73            1        51         10.6
##  6 1001             6        73            1        51         10.6
##  7 1001             7        73            1        51         10.6
##  8 1001             8        73            1        51         10.6
##  9 1001             9        73            1        51         10.6
## 10 1001            10        73            1        51         10.6
## # ... with 190 more rows, and 11 more variables: slope_factor_1 <dbl>,
## #   int_factor_2 <dbl>, slope_factor_2 <dbl>, year <int>, age <int>,
## #   cog_1 <dbl>, cog_2 <dbl>, cog_3 <dbl>, phys_1 <dbl>, phys_2 <dbl>,
## #   phys_3 <dbl>
…
# dput(colnames(ds)) # Print colnames for line below.
columns_to_write <- c(
  "subject_id",
  "wave_id", "year", "age", "county_id",
  "int_factor_1", "slope_factor_1",
  "cog_1", "cog_2", "cog_3",
  "phys_1", "phys_2", "phys_3"
)
ds_slim <-
  ds %>%
  # dplyr::slice(1:100) %>%
  dplyr::select(!!columns_to_write)
ds_slim

## # A tibble: 200 x 13
##    subject_id wave_id  year   age county_id int_factor_1 slope_factor_1
##    <fct>        <int> <int> <int>     <int>        <dbl>          <dbl>
##  1 1001             1  2000    73        51         10.6          0.021
##  2 1001             2  2001    74        51         10.6          0.021
##  3 1001             3  2002    75        51         10.6          0.021
##  4 1001             4  2003    76        51         10.6          0.021
##  5 1001             5  2004    77        51         10.6          0.021
##  6 1001             6  2005    78        51         10.6          0.021
##  7 1001             7  2006    79        51         10.6          0.021
##  8 1001             8  2007    80        51         10.6          0.021
##  9 1001             9  2008    81        51         10.6          0.021
## 10 1001            10  2009    82        51         10.6          0.021
## # ... with 190 more rows, and 6 more variables: cog_1 <dbl>, cog_2 <dbl>,
## #   cog_3 <dbl>, phys_1 <dbl>, phys_2 <dbl>, phys_3 <dbl>
…
